{
  "items": [
    {
      "id": "63207a48222fab773409694a",
      "correlationId": "9a593316-5ff3-47ed-93b1-9e2310fe9454",
      "duration": 1803,
      "started": "2022-09-20T11:58:44Z",
      "finished": "2022-09-20T11:58:46Z",
      "nodesProcessed": 4,
      "nodesTotal": 4,
      "status": "SUCCESS",
      "failed": 0,
      "user": "4ac87639-dfd9-4939-b4c4-c33081cad72f",
      "process": "Shoptet webhooks",
      "name": "shoptet-to-authentica-webhook"
    },
    {
      "id": "63207a3eaf0187d13808bb86",
      "correlationId": "656faf98-a29f-4f9f-b777-2b60af289b69",
      "duration": 592,
      "started": "2022-09-20T11:56:12Z",
      "finished": "2022-09-20T11:56:13Z",
      "nodesProcessed": 3,
      "nodesTotal": 3,
      "status": "SUCCESS",
      "failed": 0,
      "user": "4ac87639-dfd9-4939-b4c4-c33081cad72f",
      "process": "Shoptet snaphot",
      "name": "shoptet-to-authentica-snapshot"
    },
    {
      "id": "63207a48222fab773409694a",
      "correlationId": "cf90119d-cb3d-4dd6-9c40-f511b523b333",
      "duration": 540,
      "started": "2022-09-20T11:56:12Z",
      "finished": "2022-09-20T11:56:13Z",
      "nodesProcessed": 3,
      "nodesTotal": 3,
      "status": "SUCCESS",
      "failed": 0,
      "user": "4ac87639-dfd9-4939-b4c4-c33081cad72f",
      "process": "Shoptet webhooks",
      "name": "shoptet-to-authentica-webhook"
    },
    {
      "id": "63207a48222fab773409694a",
      "correlationId": "2cb58daf-3a07-4825-b34a-a8dda87d546b",
      "duration": 1451719071,
      "started": "2022-09-20T11:10:13Z",
      "finished": "2022-10-07T06:25:33Z",
      "nodesProcessed": 4,
      "nodesTotal": 3,
      "status": "FAILED",
      "failed": 1,
      "user": "4ac87639-dfd9-4939-b4c4-c33081cad72f",
      "process": "Shoptet webhooks",
      "name": "shoptet-to-authentica-webhook"
    },
    {
      "id": "6322d97a839b74b6e5075d34",
      "correlationId": "d0c6acc9-ef64-40f1-97b9-6d40d616ea5d",
      "duration": 1451791741,
      "started": "2022-09-20T11:09:01Z",
      "finished": "2022-10-07T06:25:33Z",
      "nodesProcessed": 4,
      "nodesTotal": 3,
      "status": "FAILED",
      "failed": 1,
      "user": "4ac87639-dfd9-4939-b4c4-c33081cad72f",
      "process": "Shoptet orders",
      "name": "shoptet-to-authentica-orders"
    },
    {
      "id": "63207a34893c16479a040307",
      "correlationId": "c6af2802-6f92-4c21-a0cf-5b03f00f7310",
      "duration": 1452331882,
      "started": "2022-09-20T11:00:01Z",
      "finished": "2022-10-07T06:25:33Z",
      "nodesProcessed": 4,
      "nodesTotal": 3,
      "status": "FAILED",
      "failed": 1,
      "user": "4ac87639-dfd9-4939-b4c4-c33081cad72f",
      "process": "Shoptet products",
      "name": "shoptet-to-authentica-products"
    },
    {
      "id": "6322d97a839b74b6e5075d34",
      "correlationId": "43e34457-71b5-4904-bf9f-0d343f9ea2b3",
      "duration": 1452331921,
      "started": "2022-09-20T11:00:01Z",
      "finished": "2022-10-07T06:25:33Z",
      "nodesProcessed": 4,
      "nodesTotal": 3,
      "status": "FAILED",
      "failed": 1,
      "user": "4ac87639-dfd9-4939-b4c4-c33081cad72f",
      "process": "Shoptet orders",
      "name": "shoptet-to-authentica-orders"
    },
    {
      "id": "63207a34893c16479a040307",
      "correlationId": "ec3516cb-1ff1-4bc3-850e-05b36d07d7e1",
      "duration": 1452631708,
      "started": "2022-09-20T10:55:01Z",
      "finished": "2022-10-07T06:25:33Z",
      "nodesProcessed": 4,
      "nodesTotal": 3,
      "status": "FAILED",
      "failed": 1,
      "user": "4ac87639-dfd9-4939-b4c4-c33081cad72f",
      "process": "Shoptet products",
      "name": "shoptet-to-authentica-products"
    },
    {
      "id": "6322d97a839b74b6e5075d34",
      "correlationId": "8764d2fc-1d5f-4998-a1f0-d4d8d29bee0e",
      "duration": 1452692027,
      "started": "2022-09-20T10:54:00Z",
      "finished": "2022-10-07T06:25:33Z",
      "nodesProcessed": 4,
      "nodesTotal": 3,
      "status": "FAILED",
      "failed": 1,
      "user": "4ac87639-dfd9-4939-b4c4-c33081cad72f",
      "process": "Shoptet orders",
      "name": "shoptet-to-authentica-orders"
    },
    {
      "id": "6322d97a839b74b6e5075d34",
      "correlationId": "618c0e2b-e200-4ff4-b291-0f1d9a9bcec8",
      "duration": 1453232000,
      "started": "2022-09-20T10:45:01Z",
      "finished": "2022-10-07T06:25:33Z",
      "nodesProcessed": 4,
      "nodesTotal": 3,
      "status": "FAILED",
      "failed": 1,
      "user": "4ac87639-dfd9-4939-b4c4-c33081cad72f",
      "process": "Shoptet orders",
      "name": "shoptet-to-authentica-orders"
    }
  ],
  "filter": [],
  "sorter": [],
  "paging": {
    "page": 1,
    "itemsPerPage": 10,
    "total": 46,
    "nextPage": 2,
    "lastPage": 5,
    "previousPage": 1
  }
}
