{
  "data": [
    {
      "id": "log_001",
      "timestamp": "2025-01-20T14:45:23.000Z",
      "topology": "Data Processing",
      "topologyId": "topology-1",
      "node": "Data Validator",
      "nodeId": "node_dp_001",
      "correlationId": "corr_dp_001_abc123",
      "severity": "error",
      "message": "Data validation failed: Invalid JSON format in input file. Expected object, got array.",
      "additionalContext": {
        "fileName": "input_20250120.json",
        "lineNumber": 145,
        "columnNumber": 23
      }
    },
    {
      "id": "log_002",
      "timestamp": "2025-01-20T14:30:15.000Z",
      "topology": "Data Processing",
      "topologyId": "topology-1",
      "node": "Data Transformer",
      "nodeId": "node_dp_002",
      "correlationId": "corr_dp_002_def456",
      "severity": "info",
      "message": "Successfully processed 1,234 records in batch",
      "additionalContext": {
        "batchId": "batch_20250120_001",
        "recordsProcessed": 1234,
        "processingTime": 4523
      }
    },
    {
      "id": "log_003",
      "timestamp": "2025-01-20T14:50:40.000Z",
      "topology": "Email Sync",
      "topologyId": "topology-2",
      "node": "Email Fetcher",
      "nodeId": "node_es_001",
      "correlationId": "corr_es_001_ghi789",
      "severity": "info",
      "message": "Successfully fetched 45 new emails from IMAP server",
      "additionalContext": {
        "imapServer": "imap.example.com",
        "emailCount": 45,
        "fetchDuration": 2156
      }
    },
    {
      "id": "log_004",
      "timestamp": "2025-01-20T14:35:22.000Z",
      "topology": "Email Sync",
      "topologyId": "topology-2",
      "node": "Email Parser",
      "nodeId": "node_es_002",
      "correlationId": "corr_es_002_jkl012",
      "severity": "warning",
      "message": "Email parsing partially failed: 3 out of 45 emails had invalid attachments",
      "additionalContext": {
        "totalEmails": 45,
        "successfullyParsed": 42,
        "failedEmails": 3
      }
    },
    {
      "id": "log_005",
      "timestamp": "2025-01-20T14:40:55.000Z",
      "topology": "Order Processing",
      "topologyId": "topology-3",
      "node": "Order Validator",
      "nodeId": "node_op_001",
      "correlationId": "corr_op_001_mno345",
      "severity": "error",
      "message": "Order validation failed: Missing required field 'customer_email'",
      "additionalContext": {
        "orderId": "ORD-2025-1234",
        "validationErrors": ["customer_email missing", "invalid phone format"]
      }
    },
    {
      "id": "log_006",
      "timestamp": "2025-01-20T14:22:18.000Z",
      "topology": "Order Processing",
      "topologyId": "topology-3",
      "node": "Payment Gateway",
      "nodeId": "node_op_002",
      "correlationId": "corr_op_002_pqr678",
      "severity": "info",
      "message": "Payment successfully authorized for order ORD-2025-1235",
      "additionalContext": {
        "orderId": "ORD-2025-1235",
        "amount": 299.99,
        "currency": "USD",
        "authorizationCode": "AUTH-ABC123"
      }
    },
    {
      "id": "log_007",
      "timestamp": "2025-01-20T14:58:10.000Z",
      "topology": "Payment Sync",
      "topologyId": "topology-4",
      "node": "Payment Processor",
      "nodeId": "node_ps_001",
      "correlationId": "corr_ps_001_stu901",
      "severity": "info",
      "message": "Payment transaction completed successfully",
      "additionalContext": {
        "transactionId": "TXN-2025-5678",
        "amount": 149.50,
        "processingTime": 1234
      }
    },
    {
      "id": "log_008",
      "timestamp": "2025-01-20T14:42:33.000Z",
      "topology": "Payment Sync",
      "topologyId": "topology-4",
      "node": "Refund Handler",
      "nodeId": "node_ps_002",
      "correlationId": "corr_ps_002_vwx234",
      "severity": "warning",
      "message": "Refund processing delayed: Gateway response time exceeded 5 seconds",
      "additionalContext": {
        "refundId": "REF-2025-9012",
        "responseTime": 5432,
        "threshold": 5000
      }
    },
    {
      "id": "log_009",
      "timestamp": "2025-01-20T14:15:45.000Z",
      "topology": "Test Workflow",
      "topologyId": "topology-5",
      "node": "Test Runner",
      "nodeId": "node_tw_001",
      "correlationId": "corr_tw_001_yza567",
      "severity": "debug",
      "message": "Test execution started: Running integration tests",
      "additionalContext": {
        "testSuite": "integration_tests",
        "testCount": 25
      }
    },
    {
      "id": "log_010",
      "timestamp": "2025-01-20T14:18:22.000Z",
      "topology": "Test Workflow",
      "topologyId": "topology-5",
      "node": "Test Reporter",
      "nodeId": "node_tw_002",
      "correlationId": "corr_tw_002_bcd890",
      "severity": "info",
      "message": "Test suite completed: 23 passed, 2 failed",
      "additionalContext": {
        "testSuite": "integration_tests",
        "passed": 23,
        "failed": 2,
        "duration": 157000
      }
    },
    {
      "id": "log_011",
      "timestamp": "2025-01-18T10:25:30.000Z",
      "topology": "Legacy Sync",
      "topologyId": "topology-6",
      "node": "Legacy Connector",
      "nodeId": "node_ls_001",
      "correlationId": "corr_ls_001_efg123",
      "severity": "error",
      "message": "Connection to legacy system failed: Connection refused",
      "additionalContext": {
        "host": "legacy.example.com",
        "port": 8080,
        "errorCode": "ECONNREFUSED"
      }
    },
    {
      "id": "log_012",
      "timestamp": "2025-01-18T10:15:18.000Z",
      "topology": "Legacy Sync",
      "topologyId": "topology-6",
      "node": "Data Mapper",
      "nodeId": "node_ls_002",
      "correlationId": "corr_ls_002_hij456",
      "severity": "warning",
      "message": "Legacy data format deprecated: Consider migrating to new schema",
      "additionalContext": {
        "oldFormat": "v1.2",
        "recommendedFormat": "v2.0",
        "recordsAffected": 145
      }
    },
    {
      "id": "log_013",
      "timestamp": "2025-01-20T14:52:40.000Z",
      "topology": "Report Generation",
      "topologyId": "topology-7",
      "node": "Data Aggregator",
      "nodeId": "node_rg_001",
      "correlationId": "corr_rg_001_klm789",
      "severity": "info",
      "message": "Data aggregation completed for monthly report",
      "additionalContext": {
        "reportType": "monthly_sales",
        "recordsProcessed": 45678,
        "aggregationTime": 12345
      }
    },
    {
      "id": "log_014",
      "timestamp": "2025-01-20T14:38:15.000Z",
      "topology": "Report Generation",
      "topologyId": "topology-7",
      "node": "PDF Generator",
      "nodeId": "node_rg_002",
      "correlationId": "corr_rg_002_nop012",
      "severity": "error",
      "message": "PDF generation failed: Insufficient memory. Report size exceeds available heap space.",
      "additionalContext": {
        "reportId": "RPT-2025-001",
        "heapUsed": "1.8GB",
        "heapTotal": "2GB"
      }
    },
    {
      "id": "log_015",
      "timestamp": "2025-01-20T13:50:25.000Z",
      "topology": "Data Processing",
      "topologyId": "topology-1",
      "node": "Data Loader",
      "nodeId": "node_dp_003",
      "correlationId": "corr_dp_003_qrs345",
      "severity": "info",
      "message": "Data loaded successfully from external source",
      "additionalContext": {
        "source": "external_api",
        "recordCount": 2345,
        "loadTime": 3456
      }
    }
  ],
  "pagination": {
    "total": 127,
    "page": 1,
    "perPage": 15,
    "totalPages": 9
  }
}
